…
## Problem 2

``` r
library(p8105.datasets)
data("brfss_smart2010") 

# Clean Data #
brfss = janitor::clean_names(brfss_smart2010) %>% print()
```

    ## # A tibble: 134,203 x 23
    ##     year locationabbr locationdesc class topic question response
    ##    <int> <chr>        <chr>        <chr> <chr> <chr>    <chr>   
    ##  1  2010 AL           AL - Jeffer… Heal… Over… How is … Excelle…
    ##  2  2010 AL           AL - Jeffer… Heal… Over… How is … Very go…
    ##  3  2010 AL           AL - Jeffer… Heal… Over… How is … Good    
    ##  4  2010 AL           AL - Jeffer… Heal… Over… How is … Fair    
    ##  5  2010 AL           AL - Jeffer… Heal… Over… How is … Poor    
    ##  6  2010 AL           AL - Jeffer… Heal… Fair… Health … Good or…
    ##  7  2010 AL           AL - Jeffer… Heal… Fair… Health … Fair or…
    ##  8  2010 AL           AL - Jeffer… Heal… Heal… Do you … Yes     
    ##  9  2010 AL           AL - Jeffer… Heal… Heal… Do you … No      
    ## 10  2010 AL           AL - Jeffer… Heal… Unde… Adults … Yes     
    ## # … with 134,193 more rows, and 16 more variables: sample_size <int>,
    ## #   data_value <dbl>, confidence_limit_low <dbl>,
    ## #   confidence_limit_high <dbl>, display_order <int>,
    ## #   data_value_unit <chr>, data_value_type <chr>,
    ## #   data_value_footnote_symbol <chr>, data_value_footnote <chr>,
    ## #   data_source <chr>, class_id <chr>, topic_id <chr>, location_id <chr>,
    ## #   question_id <chr>, respid <chr>, geo_location <chr>
…
``` r
accel_data = janitor::clean_names(accel_data)


# Tidy Data #

accel_data_tidy = accel_data %>% 
  pivot_longer(cols = starts_with('activity'), names_to = 'minute', values_to = 'activity') %>%
  mutate(minute = gsub('activity_', '', minute)) %>%
  mutate(weekday_vs_weekend = ifelse(day == 'Saturday', 'weekend', ifelse(day == 'Sunday', 'weekend', 'weekday'))) 

accel_data_tidy
```

    ## # A tibble: 8,820 x 6
    ##     week day_id day    minute activity weekday_vs_weekend
    ##    <dbl>  <dbl> <chr>  <chr>     <dbl> <chr>             
    ##  1     1      1 Friday 1          88.4 weekday           
    ##  2     1      1 Friday 2          82.2 weekday           
    ##  3     1      1 Friday 3          64.4 weekday           
    ##  4     1      1 Friday 4          70.0 weekday           
    ##  5     1      1 Friday 5          75.0 weekday           
    ##  6     1      1 Friday 6          66.3 weekday           
    ##  7     1      1 Friday 7          53.8 weekday           
    ##  8     1      1 Friday 8          47.8 weekday           
    ##  9     1      1 Friday 9          55.5 weekday           
    ## 10     1      1 Friday 10         43.0 weekday           
    ## # … with 8,810 more rows
…
